My Data Analysis Portfolio - Machine Learning
…
null_train_aug <- 
  augment(null_fit, train_data)

yardstick::rmse(null_train_aug, BodyTemp, .pred)

# A tibble: 1 × 3
  .metric .estimator .estimate
  <chr>   <chr>          <dbl>
1 rmse    standard        1.22

Test the Null Model

predict(null_fit, test_data)

# A tibble: 223 × 1
   .pred
   <dbl>
 1  98.9
 2  98.9
 3  98.9
 4  98.9
 5  98.9
 6  98.9
 7  98.9
 8  98.9
 9  98.9
10  98.9
# … with 213 more rows
…
