My Data Analysis Portfolio - Model Evaluation
…
cat1_wflow <- 
  workflow() %>% 
  add_model(cat_model1) %>% 
  add_recipe(cat_recipe1)

cat1_fit <- 
  cat1_wflow %>% 
  fit(data = train_data)

cat1_fit %>% 
  extract_fit_parsnip() %>% 
  tidy()

# A tibble: 38 × 5
   term                 estimate std.error statistic p.value
   <chr>                   <dbl>     <dbl>     <dbl>   <dbl>
 1 (Intercept)          -7.72       10.9     -0.706   0.480 
 2 SwollenLymphNodesYes -0.0254      0.288   -0.0880  0.930 
 3 ChestCongestionYes    0.639       0.326    1.96    0.0498
 4 ChillsSweatsYes       0.545       0.450    1.21    0.226 
 5 NasalCongestionYes    0.297       0.362    0.821   0.412 
 6 CoughYNYes           -0.446       0.710   -0.628   0.530 
 7 SneezeYes             0.336       0.316    1.07    0.287 
 8 FatigueYes            0.185       0.541    0.342   0.732 
 9 SubjectiveFeverYes   -0.00883     0.345   -0.0256  0.980 
10 HeadacheYes          -0.0243      0.402   -0.0604  0.952 
# … with 28 more rows

Check with testing data

predict(cat1_fit, test_data)

Warning in predict.lm(object, newdata, se.fit, scale = 1, type = if (type == :
prediction from a rank-deficient fit may be misleading

# A tibble: 368 × 1
   .pred_class
   <fct>      
 1 No         
 2 No         
 3 Yes        
 4 No         
 5 Yes        
 6 No         
 7 No         
 8 No         
 9 Yes        
10 No         
# … with 358 more rows

cat1_aug <- 
  augment(cat1_fit, test_data)

Warning in predict.lm(object, newdata, se.fit, scale = 1, type = if (type == :
prediction from a rank-deficient fit may be misleading

Warning in predict.lm(object, newdata, se.fit, scale = 1, type = if (type == :
prediction from a rank-deficient fit may be misleading

cat1_aug

# A tibble: 368 × 35
   SwollenLymph…¹ Chest…² Chill…³ Nasal…⁴ CoughYN Sneeze Fatigue Subje…⁵ Heada…⁶
   <fct>          <fct>   <fct>   <fct>   <fct>   <fct>  <fct>   <fct>   <fct>  
 1 Yes            No      No      No      Yes     No     Yes     Yes     Yes    
 2 Yes            Yes     No      Yes     Yes     No     Yes     Yes     Yes    
 3 Yes            Yes     Yes     Yes     No      Yes    Yes     Yes     Yes    
 4 Yes            No      Yes     No      No      No     Yes     Yes     Yes    
 5 No             No      Yes     No      Yes     Yes    Yes     Yes     Yes    
 6 No             No      Yes     No      Yes     No     Yes     Yes     No     
 7 No             Yes     Yes     Yes     Yes     Yes    Yes     Yes     Yes    
 8 Yes            Yes     Yes     Yes     Yes     No     Yes     Yes     Yes    
 9 Yes            Yes     Yes     Yes     No      No     Yes     Yes     Yes    
10 No             Yes     Yes     Yes     Yes     Yes    Yes     Yes     Yes    
# … with 358 more rows, 26 more variables: Weakness <fct>, WeaknessYN <fct>,
#   CoughIntensity <fct>, CoughYN2 <fct>, Myalgia <fct>, MyalgiaYN <fct>,
#   RunnyNose <fct>, AbPain <fct>, ChestPain <fct>, Diarrhea <fct>,
#   EyePn <fct>, Insomnia <fct>, ItchyEye <fct>, Nausea <fct>, EarPn <fct>,
#   Hearing <fct>, Pharyngitis <fct>, Breathless <fct>, ToothPn <fct>,
#   Vision <fct>, Vomit <fct>, Wheeze <fct>, BodyTemp <dbl>, .pred_class <fct>,
#   .pred_No <dbl>, .pred_Yes <dbl>, and abbreviated variable names …
…
Training Data

cat1_train <- 
  augment(cat1_fit, train_data)

Warning in predict.lm(object, newdata, se.fit, scale = 1, type = if (type == :
prediction from a rank-deficient fit may be misleading

Warning in predict.lm(object, newdata, se.fit, scale = 1, type = if (type == :
prediction from a rank-deficient fit may be misleading

cat1_train

# A tibble: 367 × 35
   SwollenLymph…¹ Chest…² Chill…³ Nasal…⁴ CoughYN Sneeze Fatigue Subje…⁵ Heada…⁶
   <fct>          <fct>   <fct>   <fct>   <fct>   <fct>  <fct>   <fct>   <fct>  
 1 Yes            Yes     Yes     Yes     Yes     No     Yes     Yes     Yes    
 2 No             Yes     Yes     No      Yes     No     Yes     No      Yes    
 3 No             No      Yes     No      Yes     Yes    Yes     No      Yes    
 4 No             No      Yes     Yes     Yes     No     Yes     No      Yes    
 5 Yes            Yes     Yes     No      Yes     No     Yes     Yes     Yes    
 6 Yes            No      No      Yes     Yes     Yes    Yes     No      Yes    
 7 Yes            No      No      Yes     Yes     No     No      No      No     
 8 No             No      Yes     No      No      No     Yes     No      Yes    
 9 Yes            No      Yes     Yes     Yes     Yes    Yes     No      No     
10 Yes            Yes     Yes     Yes     Yes     No     Yes     Yes     Yes    
# … with 357 more rows, 26 more variables: Weakness <fct>, WeaknessYN <fct>,
#   CoughIntensity <fct>, CoughYN2 <fct>, Myalgia <fct>, MyalgiaYN <fct>,
#   RunnyNose <fct>, AbPain <fct>, ChestPain <fct>, Diarrhea <fct>,
#   EyePn <fct>, Insomnia <fct>, ItchyEye <fct>, Nausea <fct>, EarPn <fct>,
#   Hearing <fct>, Pharyngitis <fct>, Breathless <fct>, ToothPn <fct>,
#   Vision <fct>, Vomit <fct>, Wheeze <fct>, BodyTemp <dbl>, .pred_class <fct>,
#   .pred_No <dbl>, .pred_Yes <dbl>, and abbreviated variable names …
…
cat2_fit %>% 
  extract_fit_parsnip() %>% 
  tidy()

# A tibble: 2 × 5
  term         estimate std.error statistic p.value
  <chr>           <dbl>     <dbl>     <dbl>   <dbl>
1 (Intercept)   -0.627      0.198    -3.16  0.00157
2 RunnyNoseYes  -0.0312     0.238    -0.131 0.896  

Check with testing data

predict(cat2_fit, test_data)

# A tibble: 368 × 1
   .pred_class
   <fct>      
 1 No         
 2 No         
 3 No         
 4 No         
 5 No         
 6 No         
 7 No         
 8 No         
 9 No         
10 No         
# … with 358 more rows

cat2_aug <- 
  augment(cat2_fit, test_data)

cat2_aug

# A tibble: 368 × 35
   SwollenLymph…¹ Chest…² Chill…³ Nasal…⁴ CoughYN Sneeze Fatigue Subje…⁵ Heada…⁶
   <fct>          <fct>   <fct>   <fct>   <fct>   <fct>  <fct>   <fct>   <fct>  
 1 Yes            No      No      No      Yes     No     Yes     Yes     Yes    
 2 Yes            Yes     No      Yes     Yes     No     Yes     Yes     Yes    
 3 Yes            Yes     Yes     Yes     No      Yes    Yes     Yes     Yes    
 4 Yes            No      Yes     No      No      No     Yes     Yes     Yes    
 5 No             No      Yes     No      Yes     Yes    Yes     Yes     Yes    
 6 No             No      Yes     No      Yes     No     Yes     Yes     No     
 7 No             Yes     Yes     Yes     Yes     Yes    Yes     Yes     Yes    
 8 Yes            Yes     Yes     Yes     Yes     No     Yes     Yes     Yes    
 9 Yes            Yes     Yes     Yes     No      No     Yes     Yes     Yes    
10 No             Yes     Yes     Yes     Yes     Yes    Yes     Yes     Yes    
# … with 358 more rows, 26 more variables: Weakness <fct>, WeaknessYN <fct>,
#   CoughIntensity <fct>, CoughYN2 <fct>, Myalgia <fct>, MyalgiaYN <fct>,
#   RunnyNose <fct>, AbPain <fct>, ChestPain <fct>, Diarrhea <fct>,
#   EyePn <fct>, Insomnia <fct>, ItchyEye <fct>, Nausea <fct>, EarPn <fct>,
#   Hearing <fct>, Pharyngitis <fct>, Breathless <fct>, ToothPn <fct>,
#   Vision <fct>, Vomit <fct>, Wheeze <fct>, BodyTemp <dbl>, .pred_class <fct>,
#   .pred_No <dbl>, .pred_Yes <dbl>, and abbreviated variable names …

ROC - AUC

Training Data

cat2_train <- 
  augment(cat2_fit, train_data)

cat2_train

# A tibble: 367 × 35
   SwollenLymph…¹ Chest…² Chill…³ Nasal…⁴ CoughYN Sneeze Fatigue Subje…⁵ Heada…⁶
   <fct>          <fct>   <fct>   <fct>   <fct>   <fct>  <fct>   <fct>   <fct>  
 1 Yes            Yes     Yes     Yes     Yes     No     Yes     Yes     Yes    
 2 No             Yes     Yes     No      Yes     No     Yes     No      Yes    
 3 No             No      Yes     No      Yes     Yes    Yes     No      Yes    
 4 No             No      Yes     Yes     Yes     No     Yes     No      Yes    
 5 Yes            Yes     Yes     No      Yes     No     Yes     Yes     Yes    
 6 Yes            No      No      Yes     Yes     Yes    Yes     No      Yes    
 7 Yes            No      No      Yes     Yes     No     No      No      No     
 8 No             No      Yes     No      No      No     Yes     No      Yes    
 9 Yes            No      Yes     Yes     Yes     Yes    Yes     No      No     
10 Yes            Yes     Yes     Yes     Yes     No     Yes     Yes     Yes    
# … with 357 more rows, 26 more variables: Weakness <fct>, WeaknessYN <fct>,
#   CoughIntensity <fct>, CoughYN2 <fct>, Myalgia <fct>, MyalgiaYN <fct>,
#   RunnyNose <fct>, AbPain <fct>, ChestPain <fct>, Diarrhea <fct>,
#   EyePn <fct>, Insomnia <fct>, ItchyEye <fct>, Nausea <fct>, EarPn <fct>,
#   Hearing <fct>, Pharyngitis <fct>, Breathless <fct>, ToothPn <fct>,
#   Vision <fct>, Vomit <fct>, Wheeze <fct>, BodyTemp <dbl>, .pred_class <fct>,
#   .pred_No <dbl>, .pred_Yes <dbl>, and abbreviated variable names …
…
# Paring model with receip
cont1_wflow <- 
  workflow() %>% 
  add_model(cont_model1) %>% 
  add_recipe(flu_mod10_cont_rec)

# Looking at the model output
cont1_fit <- 
  cont1_wflow %>% 
  fit(data = train_data)
cont1_fit %>% 
  extract_fit_parsnip() %>% 
  tidy()

# A tibble: 38 × 5
   term                 estimate std.error statistic p.value
   <chr>                   <dbl>     <dbl>     <dbl>   <dbl>
 1 (Intercept)           97.8        0.451   217.    0      
 2 SwollenLymphNodesYes  -0.406      0.137    -2.96  0.00328
 3 ChestCongestionYes     0.116      0.150     0.774 0.440  
 4 ChillsSweatsYes       -0.0681     0.200    -0.340 0.734  
 5 NasalCongestionYes    -0.0587     0.168    -0.350 0.726  
 6 CoughYNYes             0.201      0.322     0.626 0.532  
 7 SneezeYes             -0.292      0.149    -1.95  0.0515 
 8 FatigueYes             0.329      0.236     1.40  0.164  
 9 SubjectiveFeverYes     0.532      0.162     3.29  0.00111
10 HeadacheYes            0.114      0.186     0.614 0.540  
# … with 28 more rows

Using the trained workflow (cont1_fit) to predict with the unseen test data

predict(cont1_fit, test_data)

Warning in predict.lm(object = object$fit, newdata = new_data, type =
"response"): prediction from a rank-deficient fit may be misleading

# A tibble: 368 × 1
   .pred
   <dbl>
 1  99.2
 2  99.3
 3  98.9
 4  99.0
 5  99.4
 6  99.6
 7  98.7
 8  98.5
 9  99.1
10  98.7
# … with 358 more rows

cont1_aug <- 
  augment(cont1_fit, test_data)

Warning in predict.lm(object = object$fit, newdata = new_data, type =
"response"): prediction from a rank-deficient fit may be misleading

cont1_aug

# A tibble: 368 × 33
   SwollenLymph…¹ Chest…² Chill…³ Nasal…⁴ CoughYN Sneeze Fatigue Subje…⁵ Heada…⁶
   <fct>          <fct>   <fct>   <fct>   <fct>   <fct>  <fct>   <fct>   <fct>  
 1 Yes            No      No      No      Yes     No     Yes     Yes     Yes    
 2 Yes            Yes     No      Yes     Yes     No     Yes     Yes     Yes    
 3 Yes            Yes     Yes     Yes     No      Yes    Yes     Yes     Yes    
 4 Yes            No      Yes     No      No      No     Yes     Yes     Yes    
 5 No             No      Yes     No      Yes     Yes    Yes     Yes     Yes    
 6 No             No      Yes     No      Yes     No     Yes     Yes     No     
 7 No             Yes     Yes     Yes     Yes     Yes    Yes     Yes     Yes    
 8 Yes            Yes     Yes     Yes     Yes     No     Yes     Yes     Yes    
 9 Yes            Yes     Yes     Yes     No      No     Yes     Yes     Yes    
10 No             Yes     Yes     Yes     Yes     Yes    Yes     Yes     Yes    
# … with 358 more rows, 24 more variables: Weakness <fct>, WeaknessYN <fct>,
#   CoughIntensity <fct>, CoughYN2 <fct>, Myalgia <fct>, MyalgiaYN <fct>,
#   RunnyNose <fct>, AbPain <fct>, ChestPain <fct>, Diarrhea <fct>,
#   EyePn <fct>, Insomnia <fct>, ItchyEye <fct>, Nausea <fct>, EarPn <fct>,
#   Hearing <fct>, Pharyngitis <fct>, Breathless <fct>, ToothPn <fct>,
#   Vision <fct>, Vomit <fct>, Wheeze <fct>, BodyTemp <dbl>, .pred <dbl>, and
#   abbreviated variable names ¹​SwollenLymphNodes, ²​ChestCongestion, …
…
# A tibble: 1 × 3
  .metric .estimator .estimate
  <chr>   <chr>          <dbl>
1 rmse    standard        1.23

Estimated RMSE is 1.23

Now using the testing data

predict(cont2_fit, test_data)

# A tibble: 368 × 1
   .pred
   <dbl>
 1  99.1
 2  99.1
 3  98.9
 4  99.1
 5  99.1
 6  98.9
 7  98.9
 8  98.9
 9  99.1
10  98.9
# … with 358 more rows

cont2_aug <- 
  augment(cont2_fit, test_data)
cont2_aug

# A tibble: 368 × 33
   SwollenLymph…¹ Chest…² Chill…³ Nasal…⁴ CoughYN Sneeze Fatigue Subje…⁵ Heada…⁶
   <fct>          <fct>   <fct>   <fct>   <fct>   <fct>  <fct>   <fct>   <fct>  
 1 Yes            No      No      No      Yes     No     Yes     Yes     Yes    
 2 Yes            Yes     No      Yes     Yes     No     Yes     Yes     Yes    
 3 Yes            Yes     Yes     Yes     No      Yes    Yes     Yes     Yes    
 4 Yes            No      Yes     No      No      No     Yes     Yes     Yes    
 5 No             No      Yes     No      Yes     Yes    Yes     Yes     Yes    
 6 No             No      Yes     No      Yes     No     Yes     Yes     No     
 7 No             Yes     Yes     Yes     Yes     Yes    Yes     Yes     Yes    
 8 Yes            Yes     Yes     Yes     Yes     No     Yes     Yes     Yes    
 9 Yes            Yes     Yes     Yes     No      No     Yes     Yes     Yes    
10 No             Yes     Yes     Yes     Yes     Yes    Yes     Yes     Yes    
# … with 358 more rows, 24 more variables: Weakness <fct>, WeaknessYN <fct>,
#   CoughIntensity <fct>, CoughYN2 <fct>, Myalgia <fct>, MyalgiaYN <fct>,
#   RunnyNose <fct>, AbPain <fct>, ChestPain <fct>, Diarrhea <fct>,
#   EyePn <fct>, Insomnia <fct>, ItchyEye <fct>, Nausea <fct>, EarPn <fct>,
#   Hearing <fct>, Pharyngitis <fct>, Breathless <fct>, ToothPn <fct>,
#   Vision <fct>, Vomit <fct>, Wheeze <fct>, BodyTemp <dbl>, .pred <dbl>, and
#   abbreviated variable names ¹​SwollenLymphNodes, ²​ChestCongestion, …
…
