My Data Analysis Portfolio - Tidy Tuesday Exercise 2
…
null_train_aug <- 
  augment(null_fit, train_data)

yardstick::rmse(null_train_aug, n_eggs, .pred)

# A tibble: 1 × 3
  .metric .estimator   .estimate
  <chr>   <chr>            <dbl>
1 rmse    standard   2764345202.

Test the Null Model

predict(null_fit, test_data)

# A tibble: 51 × 1
         .pred
         <dbl>
 1 2585493808.
 2 2585493808.
 3 2585493808.
 4 2585493808.
 5 2585493808.
 6 2585493808.
 7 2585493808.
 8 2585493808.
 9 2585493808.
10 2585493808.
# … with 41 more rows
…
tree_wf <- workflow() %>%
  add_model(tune_spec) %>%
  add_recipe(egg_rates_recipe)

tree_res <-
  tree_wf %>%
  tune_grid(
    resamples = folds, #recall this created CV from earlier
    grid = tree_grid)

tree_res %>%collect_metrics()

# A tibble: 50 × 8
   cost_complexity tree_depth .metric .estimator      mean     n std_err .config
             <dbl>      <int> <chr>   <chr>          <dbl> <int>   <dbl> <chr>  
 1    0.0000000001          1 rmse    standard     3.72e+8     9 8.48e+6 Prepro…
 2    0.0000000001          1 rsq     standard     9.83e-1     9 7.80e-4 Prepro…
 3    0.0000000178          1 rmse    standard     3.72e+8     9 8.48e+6 Prepro…
 4    0.0000000178          1 rsq     standard     9.83e-1     9 7.80e-4 Prepro…
 5    0.00000316            1 rmse    standard     3.72e+8     9 8.48e+6 Prepro…
 6    0.00000316            1 rsq     standard     9.83e-1     9 7.80e-4 Prepro…
 7    0.000562              1 rmse    standard     3.72e+8     9 8.48e+6 Prepro…
 8    0.000562              1 rsq     standard     9.83e-1     9 7.80e-4 Prepro…
 9    0.1                   1 rmse    standard     3.72e+8     9 8.48e+6 Prepro…
10    0.1                   1 rsq     standard     9.83e-1     9 7.80e-4 Prepro…
# … with 40 more rows
…
final_fit %>%
  collect_metrics()

# A tibble: 2 × 4
  .metric .estimator     .estimate .config             
  <chr>   <chr>              <dbl> <chr>               
1 rmse    standard   271027592.    Preprocessor1_Model1
2 rsq     standard           0.991 Preprocessor1_Model1

final_fit %>%
  collect_predictions()

# A tibble: 51 × 5
   id                    .pred  .row      n_eggs .config             
   <chr>                 <dbl> <int>       <dbl> <chr>               
 1 train/test split 990191806.     1  397884291. Preprocessor1_Model1
 2 train/test split 990191806.     2  383774914. Preprocessor1_Model1
 3 train/test split 990191806.     6  550017411. Preprocessor1_Model1
 4 train/test split 990191806.    16  780750514. Preprocessor1_Model1
 5 train/test split 990191806.    18  826794977. Preprocessor1_Model1
 6 train/test split 990191806.    20  857017851. Preprocessor1_Model1
 7 train/test split 990191806.    23  882298286. Preprocessor1_Model1
 8 train/test split 990191806.    30  973820006. Preprocessor1_Model1
 9 train/test split 990191806.    32 1092870103. Preprocessor1_Model1
10 train/test split 990191806.    33 1147652743. Preprocessor1_Model1
# … with 41 more rows
…
rf_best <- 
  rf_res %>% 
  select_best(metric = "rmse")
rf_best

# A tibble: 1 × 3
   mtry min_n .config             
  <int> <int> <chr>               
1    10    36 Preprocessor1_Model2

rf_res %>% 
  collect_predictions()

# A tibble: 1,356 × 8
   id      id2         .pred  .row  mtry min_n      n_eggs .config             
   <chr>   <chr>       <dbl> <int> <int> <int>       <dbl> <chr>               
 1 Repeat1 Fold1 1171372315.     1     8    20  546374469. Preprocessor1_Model1
 2 Repeat1 Fold1  944487209.     9     8    20  643637057. Preprocessor1_Model1
 3 Repeat1 Fold1 1171372315.    12     8    20  804085971. Preprocessor1_Model1
 4 Repeat1 Fold1  944487209.    17     8    20  908679086. Preprocessor1_Model1
 5 Repeat1 Fold1 1171372315.    20     8    20  967391846. Preprocessor1_Model1
 6 Repeat1 Fold1 1194774866.    25     8    20 1170483943. Preprocessor1_Model1
 7 Repeat1 Fold1  867253524.    28     8    20 1248814800  Preprocessor1_Model1
 8 Repeat1 Fold1  909115772.    29     8    20 1290441960  Preprocessor1_Model1
 9 Repeat1 Fold1  929376494.    30     8    20 1271439669. Preprocessor1_Model1
10 Repeat1 Fold1  918020490.    31     8    20 1189411303. Preprocessor1_Model1
# … with 1,346 more rows

rf_rmse <- 
  rf_res %>% 
  collect_predictions(parameters = rf_best) 
rf_rmse

# A tibble: 339 × 8
   id      id2         .pred  .row  mtry min_n      n_eggs .config             
   <chr>   <chr>       <dbl> <int> <int> <int>       <dbl> <chr>               
 1 Repeat1 Fold1  957482614.     1    10    36  546374469. Preprocessor1_Model2
 2 Repeat1 Fold1  937284386.     9    10    36  643637057. Preprocessor1_Model2
 3 Repeat1 Fold1  957482614.    12    10    36  804085971. Preprocessor1_Model2
 4 Repeat1 Fold1  937284386.    17    10    36  908679086. Preprocessor1_Model2
 5 Repeat1 Fold1  957482614.    20    10    36  967391846. Preprocessor1_Model2
 6 Repeat1 Fold1 1009461459.    25    10    36 1170483943. Preprocessor1_Model2
 7 Repeat1 Fold1  932026806.    28    10    36 1248814800  Preprocessor1_Model2
 8 Repeat1 Fold1  945577696.    29    10    36 1290441960  Preprocessor1_Model2
 9 Repeat1 Fold1  941033723.    30    10    36 1271439669. Preprocessor1_Model2
10 Repeat1 Fold1  953236486.    31    10    36 1189411303. Preprocessor1_Model2
# … with 329 more rows
…
